Charles Book Club
…
# Cập nhâp tên của từ khóa F để tránh nhầm lẫn với từ khóa False
data <- data %>% rename(Fr = `F`)

# Xóa những cột không cần thiết 
data <- data %>%
  select(-`Seq#`, -`ID#`, -Yes_Florence, -No_Florence) %>%
  select(-Florence, everything()) # chuyển cột Florence thành cột sau cùng
data

## # A tibble: 4,000 x 20
##    Gender     M     R    Fr FirstPurch ChildBks YouthBks CookBks DoItYBks RefBks
##    <fct>  <dbl> <dbl> <dbl>      <dbl>    <dbl>    <dbl>   <dbl>    <dbl>  <dbl>
##  1 Female   297    14     2         22        0        1       1        0      0
##  2 Male     128     8     2         10        0        0       0        0      0
##  3 Female   138    22     7         56        2        1       2        0      1
##  4 Female   228     2     1          2        0        0       0        0      0
##  5 Female   257    10     1         10        0        0       0        0      0
##  6 Female   145     6     2         12        0        0       0        0      0
##  7 Female   190    16     1         16        0        0       0        0      0
##  8 Female   187    14     1         14        1        0       0        0      0
##  9 Female   252    10     1         10        0        0       0        0      0
## 10 Female   240     6     3         20        0        0       1        0      0
## # ... with 3,990 more rows, and 10 more variables: ArtBks <dbl>, GeogBks <dbl>,
## #   ItalCook <dbl>, ItalAtlas <dbl>, ItalArt <dbl>, Related Purchase <dbl>,
## #   Mcode <ord>, Rcode <ord>, Fcode <ord>, Florence <dbl>
…
