Data Mining
…
KNN

 o  nh gi : ROC, AUC, TPR, FPR

Tp d liu: CharlesBookClub.csv (Link n dataset: https://github.com/kwartler/Harvard_DataMining_Business_Student/blob/master/BookDataSets/CharlesBookClub.csv)

Case study 21.1 Sch Data Mining for Busines Analytis Concepts, Techniques, and Applications in R by Kenneth C.Lichtendahl, Jr

Tng quan v d liu

INPUT: Thng tin mua hng ca khch hng v mt s thng tin lin quan n lch s thi quen mua sch ca khch hng

OUPUT: Bin Florence th hin khch hng c mua sch The Art History of Florence hay khng

## # A tibble: 4,000 x 20
##    Gender     M     R    Fr FirstPurch ChildBks YouthBks CookBks DoItYBks RefBks
##    <fct>  <dbl> <dbl> <dbl>      <dbl>    <dbl>    <dbl>   <dbl>    <dbl>  <dbl>
##  1 Female   297    14     2         22        0        1       1        0      0
##  2 Male     128     8     2         10        0        0       0        0      0
##  3 Female   138    22     7         56        2        1       2        0      1
##  4 Female   228     2     1          2        0        0       0        0      0
##  5 Female   257    10     1         10        0        0       0        0      0
##  6 Female   145     6     2         12        0        0       0        0      0
##  7 Female   190    16     1         16        0        0       0        0      0
##  8 Female   187    14     1         14        1        0       0        0      0
##  9 Female   252    10     1         10        0        0       0        0      0
## 10 Female   240     6     3         20        0        0       1        0      0
## # ... with 3,990 more rows, and 10 more variables: ArtBks <dbl>, GeogBks <dbl>,
## #   ItalCook <dbl>, ItalAtlas <dbl>, ItalArt <dbl>, Related Purchase <dbl>,
## #   Mcode <ord>, Rcode <ord>, Fcode <ord>, Florence <dbl>
…
39.2

1 book

1227

30.7

Phn vng d liu

Ta s chia d liu thnh tp train v tp test vi t l 7:3

Tp train

## # A tibble: 2,801 x 20
##    Gender     M     R    Fr FirstPurch ChildBks YouthBks CookBks DoItYBks RefBks
##    <fct>  <dbl> <dbl> <dbl>      <dbl>    <dbl>    <dbl>   <dbl>    <dbl>  <dbl>
##  1 Female   297    14     2         22        0        1       1        0      0
##  2 Male     128     8     2         10        0        0       0        0      0
##  3 Female   228     2     1          2        0        0       0        0      0
##  4 Female   257    10     1         10        0        0       0        0      0
##  5 Female   190    16     1         16        0        0       0        0      0
##  6 Female   187    14     1         14        1        0       0        0      0
##  7 Female   252    10     1         10        0        0       0        0      0
##  8 Female   240     6     3         20        0        0       1        0      0
##  9 Female   275     2     4         20        0        0       1        0      0
## 10 Male     320     2     3         18        0        0       0        0      0
## # ... with 2,791 more rows, and 10 more variables: ArtBks <dbl>, GeogBks <dbl>,
## #   ItalCook <dbl>, ItalAtlas <dbl>, ItalArt <dbl>, Related Purchase <dbl>,
## #   Mcode <ord>, Rcode <ord>, Fcode <ord>, Florence <fct>

Phn vng d liu

Tp test

## # A tibble: 1,199 x 20
##    Gender     M     R    Fr FirstPurch ChildBks YouthBks CookBks DoItYBks RefBks
##    <fct>  <dbl> <dbl> <dbl>      <dbl>    <dbl>    <dbl>   <dbl>    <dbl>  <dbl>
##  1 Female   138    22     7         56        2        1       2        0      1
##  2 Female   145     6     2         12        0        0       0        0      0
##  3 Female   268     4     1          4        0        0       0        0      0
##  4 Male     135    14     1         14        1        0       0        0      0
##  5 Female   256    14     9         58        2        0       3        0      1
##  6 Male     260    34    11         74        0        2       3        5      0
##  7 Female   172    16     1         16        0        0       0        0      1
##  8 Male     317    10     3         28        0        0       0        0      0
##  9 Male      49    22     3         32        0        0       1        1      0
## 10 Female   355    16     5         28        1        0       2        0      1
## # ... with 1,189 more rows, and 10 more variables: ArtBks <dbl>, GeogBks <dbl>,
## #   ItalCook <dbl>, ItalAtlas <dbl>, ItalArt <dbl>, Related Purchase <dbl>,
## #   Mcode <ord>, Rcode <ord>, Fcode <ord>, Florence <fct>
…
